Place,Name,Sex,BirthDate,Age,Country,Equipment,Division,BodyweightKg,WeightClassKg,Squat1Kg,Squat2Kg,Squat3Kg,Squat4Kg,Best3SquatKg,Bench1Kg,Bench2Kg,Bench3Kg,Bench4Kg,Best3BenchKg,Deadlift1Kg,Deadlift2Kg,Deadlift3Kg,Deadlift4Kg,Best3DeadliftKg,TotalKg,Event
1,Valentina Aguirre,F,2001-05-12,21,Argentina,Raw,J20-23,66.52,67.5,-130,130,135,-140,135,55,60,-65,,60,155,162.5,170,-200.5,170,365,SBD
2,Lilen Agustina Areco,F,1999-06-28,23,Argentina,Raw,J20-23,63.6,67.5,100,107.5,115,,115,52.5,57.5,-60,,57.5,115,130,140,,140,312.5,SBD
1,Marta Gabriela Palacios,F,,,Argentina,Raw,M50-54,67.22,67.5,70,-80,80,,80,45,50,55,,55,120,140,150,160,150,285,SBD
1,Noemi Anaquin,F,1992-08-19,30,Argentina,Raw,Open,55.22,56,-115,115,-125,,115,75,80,-82.5,,80,150,-160,160,,160,355,SBD
2,Candelaria Falzone,F,2003-03-11,19,Argentina,Raw,Open,54,56,110.5,117.5,-122.5,,117.5,37.5,42.5,45,,45,115.5,120,130,,130,292.5,SBD
1,Vanesa Barbero,F,1989-12-18,32,Argentina,Raw,Open,65.3,67.5,-115,115,-122.5,,115,57.5,60,62.5,,62.5,115,120,125,,125,302.5,SBD
1,Adamari Pulgar,F,2004-08-22,18,Chile,Wraps,J18-19,55.18,56,-107.5,-107.5,107.5,,107.5,50,55,-60,,55,150,-157.5,-157.5,,150,312.5,SBD
1,Maria Jose Guibarra Paz,F,,,Bolivia,Wraps,J18-19,57.24,60,-105,105,-112.5,,105,47.5,-52.5,-52.5,,47.5,110,-115,-115,,110,262.5,SBD
1,Sandy Torres,F,2001-04-14,21,Chile,Wraps,J20-23,55.28,56,137.5,140,-147.5,,140,65,70,75,,75,150,-160,160,,160,375,SBD
1,Francisca Molina,F,1999-04-30,23,Chile,Wraps,J20-23,59.9,60,150,155,-160,,155,70,75,-77.5,,75,170,180,-190,,180,410,SBD
1,Estefania Del Carmen Mora Flores,F,2001-06-20,21,Chile,Wraps,J20-23,73.04,75,125,-132.5,-132.5,,125,62.5,-65,65,,65,130,142.5,-147.5,,142.5,332.5,SBD
2,Dana Deniz,F,1998-12-11,23,Argentina,Wraps,J20-23,69,75,120,-132.5,137.5,,137.5,52.5,57.5,-60,,57.5,115,132.5,-140,,132.5,327.5,SBD
3,Maria Jose Vargas Fernandez,F,2000-08-23,22,Bolivia,Wraps,J20-23,74.82,75,125,130,132.5,,132.5,52.5,55,60,,60,120,127.5,132.5,,132.5,325,SBD
1,Antonella Vazquez,F,1977-10-20,44,Argentina,Wraps,M40-44,54,56,-150,-150,160,,160,45,55,60,,60,127.5,135,142.5,145,142.5,362.5,SBD
1,Natalia Riveaud Rojas,F,1979-12-14,42,Chile,Wraps,M40-44,64.14,67.5,107.5,115,120,,120,45,50,52.5,,52.5,-120,130,-137.5,,130,302.5,SBD
1,Veronica Garcia #2,F,1976-08-31,46,Argentina,Wraps,M45-49,51.98,52,105,111,112.5,115,112.5,62.5,67.5,70,-72.5,70,103,110,115,117.5,115,297.5,SBD
1,Veronica Duran,F,1977-05-25,45,Argentina,Wraps,M45-49,79.54,82.5,165,-172.5,175,,175,70,80,-85,,80,170,180,-187.5,,180,435,SBD
1,Maria Eugenia Cisterna,F,1977-02-20,45,Argentina,Wraps,M45-49,96.4,90+,-150,150,-165,,150,60,70,75,,75,175,185,195,,195,420,SBD
1,Cecilia Andrea Baeza Palacios,F,1969-12-21,52,Chile,Wraps,M50-54,51.88,52,110,-115,115,,115,45,50,55.5,,55.5,120,130,140,-145,140,310.5,SBD
1,Inés Alejandra Zeballos,F,1970-03-06,52,Argentina,Wraps,M50-54,57.04,60,-110,110,-120,,110,50,60,65,,65,120,130,140,-145,140,315,SBD
NS,Adriana Jorgensen Ibañez,F,1993-09-02,29,Bolivia,Wraps,Open,,,,,,,,,,,,,,,,,,,SBD
1,Natalia Rojas,F,1996-06-30,26,Argentina,Wraps,Open,43.34,44,-80,90,-100,,90,35,40,42.5,,42.5,85,98,105,110,105,237.5,SBD
1,Micaela Lopez,F,1993-08-22,29,Argentina,Wraps,Open,46.98,48,127.5,140,-145,,140,62.5,70,75,,75,120,132.5,142.5,,142.5,357.5,SBD
1,Cecilia Andrea Baeza Palacios,F,1969-12-21,52,Chile,Wraps,Open,51.88,52,110,-115,115,,115,45,50,55.5,,55.5,120,130,140,-145,140,310.5,SBD
1,Sandy Torres,F,2001-04-14,21,Chile,Wraps,Open,55.28,56,137.5,140,-147.5,,140,65,70,75,,75,150,-160,160,,160,375,SBD
2,Jessica Llonga,F,1994-05-16,28,Argentina,Wraps,Open,52.3,56,120,130,-145,,130,55,62.5,65,,65,120,130,142.5,,142.5,337.5,SBD
3,Georgina Semeraro,F,1993-05-06,29,Argentina,Wraps,Open,55.32,56,-110,120,130,,130,42.5,47.5,-50,,47.5,120,132.5,140,,140,317.5,SBD
4,Wanda Vakulski,F,1993-02-27,29,Argentina,Wraps,Open,52.82,56,100,-110,117.5,,117.5,45,47.5,50,,50,110,120,125,,125,292.5,SBD
5,Gabriela Flores Guardia,F,1989-03-01,33,Bolivia,Wraps,Open,53.78,56,-95,95,100,,100,42.5,45,-50,,45,112.5,117.5,-120,,117.5,262.5,SBD
1,Marina Castillo Pardo,F,1994-06-22,28,Chile,Wraps,Open,59.66,60,185,195,205,,205,80,-85,87.5,,87.5,-180,-190,190,,190,482.5,SBD
2,Ana Cuello Heinz,F,1990-06-12,32,Argentina,Wraps,Open,56.54,60,80,90,95,,95,55,60,-62.5,,60,-100,100,110,,110,265,SBD
1,Natalys Aravena Ortiz,F,,,Chile,Wraps,Open,66.98,67.5,-180,-180,180,,180,85,90,95,,95,180,190,200,,200,475,SBD
2,Astrid Kroff,F,1983-12-23,38,Chile,Wraps,Open,66.44,67.5,150,160,-167.5,,160,75,80,85,,85,180,190,-200,,190,435,SBD
3,Estela Peña,F,1990-04-10,32,Argentina,Wraps,Open,67.04,67.5,-180,180,-195,,180,77.5,82.5,-85,,82.5,170,-180,,,170,432.5,SBD
4,Vanesa Belen Opazo,F,1991-05-01,31,Argentina,Wraps,Open,63.58,67.5,-140,145,-155,,145,77.5,82.5,-87.5,,82.5,140,150,-160,,150,377.5,SBD
DQ,Paula Ximena Garcia,F,1992-08-27,30,Argentina,Wraps,Open,65.7,67.5,-135,-145,-145,,,65,70,-75,,70,140,150,-160,,150,,SBD
1,Solanyi Leon Martinez,F,1991-01-06,31,Colombia,Wraps,Open,71.76,75,170,180,-190,,180,70,80,-90,,80,180,190,200,-211,200,460,SBD
1,Francisca Simona Medina Ortiz,F,1994-05-19,28,Chile,Wraps,Open,78.68,82.5,130,140,-150,,140,60,65,70,,70,160,170,180,,180,390,SBD
NS,Adriana Jorgensen Ibañez,F,1993-09-02,29,Bolivia,Raw,Open,,,,,,,,,,,,,,,,,,,D
1,Fabrizio Nahuel Ruarte Hirch,M,2003-03-11,19,Argentina,Raw,J18-19,74.28,75,170,180,-187.5,,180,115,125,127.5,-132.5,127.5,210,225,-240,,225,532.5,SBD
1,Gonzalo Morales,M,2003-01-21,19,Argentina,Raw,J18-19,80.96,82.5,170,190,-197.5,,190,100,110,-115,,110,205,-220,230.5,,230.5,530.5,SBD
2,Fabian Amorena,M,2003-11-21,18,Argentina,Raw,J18-19,82.4,82.5,165,175,180,,180,77.5,85,-92.5,,85,195,207.5,220,-230.5,220,485,SBD
1,Facundo Rodriguez Kholi,M,2003-06-10,19,Argentina,Raw,J18-19,87.56,90,220,230,240,,240,152.5,160,165,-171,165,225,235,-240,,235,640,SBD
2,Maximiliano Zeballos Voss,M,2002-12-18,19,Argentina,Raw,J18-19,89.22,90,-215,225,-232.5,,225,145,152.5,-157.5,,152.5,260,-272.5,-272.5,,260,637.5,SBD
1,Facundo Montiel,M,2004-08-09,18,Argentina,Raw,J18-19,135.38,140,230,237.5,,,237.5,-110,115,-120,,115,270,285,-295.5,,285,637.5,SBD
1,Ricardo Salazar,M,2001-10-27,20,Chile,Raw,J20-23,66.22,67.5,140,-147.5,-147.5,,140,90,95,100,,100,167.5,-175,-175,,167.5,407.5,SBD
1,Alan Hernandez #9,M,2001-07-12,21,Chile,Raw,J20-23,70.7,75,150,160,-170,,160,80,85,-90,,85,195,-205,205,,205,450,SBD
1,Pablo Ferruz,M,2000-09-30,21,Chile,Raw,J20-23,88.74,90,210,220,-227.5,,220,132.5,140,-145,,140,257.5,272.5,280,,280,640,SBD
1,Diego Sanagua,M,2000-02-22,22,Argentina,Raw,J20-23,107.9,110,220,-232.5,-235,,220,125,132.5,135,,135,290,305,-310,,305,660,SBD
2,Fabrizio Leonel Mora,M,2000-10-18,21,Argentina,Raw,J20-23,108.44,110,237.5,247.5,-253,,247.5,125,132.5,-135,,132.5,270,-285,-287.5,,270,650,SBD
1,Facundo Gallardo,M,1999-01-22,23,Argentina,Raw,J20-23,123.92,125,235,250,-260,,250,152.5,160,-165,,160,285,-300,305,-310,305,715,SBD
1,Ramiro Mosquera,M,1979-01-26,43,Argentina,Raw,M40-44,81.62,82.5,210,230,240,,240,125,130,132.5,,132.5,205,217.5,225,,225,597.5,SBD
1,Darío Ahrens,M,1989-11-26,32,Argentina,Raw,Open,58.86,60,170,187.5,-200,,187.5,100,-105,-105,,100,180,-190,-190,,180,467.5,SBD
1,Miguel Villarreal,M,1998-06-22,24,Mexico,Raw,Open,66,67.5,157.5,167.5,-175,,167.5,100,105,107.5,,107.5,212.5,225,235,,235,510,SBD
1,Juan Manuel Iglesias,M,1993-05-05,29,Argentina,Raw,Open,75,75,200,210,220,,220,132.5,140,-145,,140,200,-210,210,,210,570,SBD
2,Ivan Chirinian,M,1993-12-24,28,Argentina,Raw,Open,74.74,75,-180,195,205,-212.5,205,120,125,130,-135,130,230,-247.5,-247.5,,230,565,SBD
3,Felipe Milategua Sanhuesa,M,1998-04-03,24,Chile,Raw,Open,74.42,75,190,200,-210,,200,105,,,,105,70,,,,70,375,SBD
1,Yefirson Arteaga,M,,,Argentina,Raw,Open,82.14,82.5,225,237.5,245.5,-250.5,245.5,147.5,153,-157.5,,153,260,-275,-275,,260,658.5,SBD
2,Gonzalo García,M,1995-06-15,27,Argentina,Raw,Open,80.98,82.5,230,-245.5,-245.5,,230,120,125,-130,,125,275,-290,-305,,275,630,SBD
1,Leonardo Sandrini,M,1996-01-27,26,Brazil,Raw,Open,94.21,100,227.5,237.5,247.5,,247.5,185,195,205,,205,270,290,-300,,290,742.5,SBD
1,Juan Santa Rosa,M,1986-09-30,35,Argentina,Raw,Open,106.23,110,245,255.5,-265,,255.5,187.5,195,-200,,195,275,287.5,-295,,287.5,738,SBD
2,Antonio Pineda,M,1990-07-30,32,Chile,Raw,Open,108,110,242.5,255,265,,265,165,-172.5,-177.5,,165,272.5,-287.5,-287.5,,272.5,702.5,SBD
1,Franco Jose Leo Menazzi,M,1997-12-10,24,Argentina,Raw,Open,157.26,140+,290,305.5,320,,320,-175,175,185,-195.5,185,315,332.5,350,,350,855,SBD
1,Fernando Gadea Ruppel,M,2006-09-27,15,Argentina,Wraps,J13-15,49.86,52,120,125,128,-130,128,65,67.5,70,,70,150,155,157.5,160,157.5,355.5,SBD
DQ,Miguel Angel Medrano,M,2007-04-26,15,Argentina,Wraps,J13-15,57.62,60,-145,-145,-145,,,80,85,-87.5,,85,150,160,170,,170,,SBD
1,Renato Rivas,M,2003-07-25,19,Chile,Wraps,J18-19,74.52,75,200,210,-215.5,,210,-120,120,-130,,120,230,245,250,-260,250,580,SBD
1,Francisco Lozano,M,2003-04-08,19,Argentina,Wraps,J18-19,81.4,82.5,-190,190,-210,,190,115,125,-130,,125,240,-255,,,240,555,SBD
1,Angel Maidana,M,2004-08-05,18,Argentina,Wraps,J18-19,114.58,125,-180,180,190,,190,102.5,110,-115,,110,180,200,-210,,200,500,SBD
1,Edward Verdejo,M,1999-08-01,23,Chile,Wraps,J20-23,54.9,56,170,177.5,185.5,,185.5,77.5,80,82.5,,82.5,180,-190,-190,,180,448,SBD
1,Daniel Alberto Navarrete Trangol,M,1999-02-22,23,Chile,Wraps,J20-23,64.2,67.5,-185,185,200,,200,95,102.5,105,,105,210,220,230,,230,535,SBD
2,Juan Carlos Villanueva Lopez,M,2001-01-25,21,Bolivia,Wraps,J20-23,67.24,67.5,175,185,-190,,185,125,135,-140,,135,190,205,215,,215,535,SBD
1,Tomas Otero,M,1999-08-10,23,Argentina,Wraps,J20-23,72.76,75,225,240,-250,,240,120,130,137.5,,137.5,215,230,-235,,230,607.5,SBD
2,Axel Candia,M,2001-04-29,21,Chile,Wraps,J20-23,73.12,75,-202.5,202.5,212.5,,212.5,142.5,150,-155,,150,197.5,212.5,-220,,212.5,575,SBD
1,Marcos Marcellino,M,1999-08-10,23,Argentina,Wraps,J20-23,80.42,82.5,262.5,-280,280,-295.5,280,145,155,-162.5,,155,240,255,265,270,265,700,SBD
1,Alexis Campillay Honores,M,1999-05-07,23,Chile,Wraps,J20-23,137.26,140,257.5,-272.5,272.5,,272.5,125,132.5,142.5,,142.5,262.5,285,-292.5,,285,700,SBD
1,Franco Ferreyra,M,1980-10-29,41,Argentina,Wraps,M40-44,63.6,67.5,-145,145,162.5,,162.5,-92.5,92.5,-95,,92.5,-190,190,-200,,190,445,SBD
1,Marcos Toconas,M,1982-05-17,40,Argentina,Wraps,M40-44,82.42,82.5,-210,210,-225,,210,130,-140,-140,,130,220,230,-240,,230,570,SBD
1,Lucas Bentos,M,1981-11-30,40,Argentina,Wraps,M40-44,135.9,140,-285,-285,285,,285,180,190,-200,,190,295,310,-325,,310,785,SBD
1,Chien-Hwa Chen,M,1976-09-16,46,Argentina,Wraps,M45-49,88,90,190,-200,-210,,190,135,145,-150.5,,145,210,220,-225.5,,220,555,SBD
1,Antonio Menares Guajardo,M,1965-05-22,57,Chile,Wraps,M55-59,74.48,75,137.5,145,-150,,145,77.5,82.5,-87.5,,82.5,152.5,165.5,-170,,165.5,393,SBD
1,Edward Verdejo,M,1999-08-01,23,Chile,Wraps,Open,54.9,56,170,177.5,185.5,,185.5,77.5,80,82.5,,82.5,180,-190,-190,,180,448,SBD
1,Pablo Gomez,M,1989-07-04,33,Argentina,Wraps,Open,67.24,67.5,225,240,-251,,240,105,110,-115,,110,205,212.5,220,-240.5,220,570,SBD
1,Paolo Meneses Covili,M,1991-03-01,31,Chile,Wraps,Open,74.8,75,195,212.5,225,,225,120,127.5,-130,,127.5,242.5,250,-260,,250,602.5,SBD
2,Gustavo Oscar Rosales,M,1991-07-07,31,Argentina,Wraps,Open,72.34,75,210,-220,220,,220,132.5,-140,-140,,132.5,230,-245,-245,,230,582.5,SBD
3,Gustavo Peña,M,1992-07-12,30,Argentina,Wraps,Open,74.14,75,220,-230,-230,,220,125,132.5,-137.5,,132.5,210,-220,-220,,210,562.5,SBD
4,Matias Emanuel Saez,M,1991-05-22,31,Argentina,Wraps,Open,74.46,75,-190,190,-195,,190,115,-120,-120,,115,240,245,-250,,245,550,SBD
1,Leandro Ezequiel Albornoz,M,1992-09-15,30,Argentina,Wraps,Open,79.84,82.5,275,287.5,300,,300,-150,150,160,-163,160,270,285,-290,,285,745,SBD
2,Pablo Zuazquita,M,1990-08-19,32,Argentina,Wraps,Open,81.64,82.5,-210,-210,230,,230,125,135,142.5,-163,142.5,200,230,-250,,230,602.5,SBD
1,Roberto Correa,M,1990-05-10,32,Chile,Wraps,Open,89.54,90,270,-285,285,,285,152.5,-160,160,,160,285,300.5,310,,310,755,SBD
2,Ezequiel Uguet,M,,,Argentina,Wraps,Open,88.38,90,-270,275,-285,,275,165,172.5,175,-177.5,175,-270,270,-297.5,,270,720,SBD
3,Alessandro Cuccaro,M,1990-06-21,32,Argentina,Wraps,Open,89.44,90,255,-270,270,,270,130,140,-150,,140,255,270,-280,,270,680,SBD
1,Guido Gola,M,1996-05-11,26,Argentina,Wraps,Open,98.8,100,285,295,-305,,295,190,-197.5,200.5,,200.5,285,305,315,320.5,315,810.5,SBD
2,Alejo Philipp,M,1994-12-08,27,Argentina,Wraps,Open,98.74,100,270,285,-300,,285,170,177.5,182.5,,182.5,270,-275,275,,275,742.5,SBD
3,Juan Carlos Volpatti,M,1983-03-24,39,Argentina,Wraps,Open,98.46,100,270,-280,-280,,270,150,160,-170,,160,265,280,-290,,280,710,SBD
4,Martin Nion,M,1985-05-04,37,Argentina,Wraps,Open,92.42,100,200,202.5,220,,220,110,120,125,,125,215,225,-242.5,,225,570,SBD
1,Sergio Gabriel Iglesias,M,1986-05-22,36,Argentina,Wraps,Open,101.3,110,275,285,292.5,,292.5,150,160,-165,,160,280,290,-300,,290,742.5,SBD
2,Fabrizio Fantozzi,M,1998-09-18,24,Argentina,Wraps,Open,108.84,110,265,-280,-280,,265,150,160,-170,,160,295,310,-320,,310,735,SBD
3,Francisco Haquin,M,1997-04-11,25,Chile,Wraps,Open,107.28,110,270,-285,-290,,270,145,-152.5,-152.5,,145,285,292.5,-300,,292.5,707.5,SBD
1,Facundo Presta,M,,,Argentina,Wraps,Open,123.5,125,-300,300,,,300,190,201,-205,,201,325,-340,350,360,350,851,SBD
1,Juan Carlos Volpatti,M,1983-03-24,39,Argentina,Wraps,S35-39,98.46,100,270,-280,-280,,270,150,160,-170,,160,265,280,-290,,280,710,SBD
1,Omar Javier Cardenas,M,1982-05-13,40,Colombia,Single-ply,M40-44,66.58,67.5,220,250,265,-270.5,265,160,170.5,-175,,170.5,225,230,235.5,-240,235.5,671,SBD
1,Omar Javier Cardenas,M,1982-05-13,40,Colombia,Single-ply,Open,66.58,67.5,220,250,265,-270.5,265,160,170.5,-175,,170.5,225,230,235.5,-240,235.5,671,SBD
1,Sergio Adrian Barriento,M,1978-09-03,44,Argentina,Raw,M40-44,81.96,82.5,,,,,,145,-150,150,,150,,,,,,150,B
1,Diego Ardizzone,M,1977-06-08,45,Argentina,Raw,M45-49,65.96,67.5,,,,,,120.5,125,127.5,130,127.5,,,,,,127.5,B
1,Sergio Luciano Morales,M,1962-05-01,60,Argentina,Raw,M60-64,113,125,,,,,,150,-160,160,-170,160,,,,,,160,B
1,Ricardo Martinez #9,M,1997-08-26,25,Chile,Raw,Open,73.87,75,,,,,,150,157.5,-160,,157.5,,,,,,157.5,B
1,Franco Perez,M,1995-02-18,27,Argentina,Raw,Open,89.42,90,,,,,,145.5,155,160,,160,,,,,,160,B
1,Cristian Miguel Gutierrez,M,1979-04-03,43,Argentina,Raw,Open,119.22,125,,,,,,190,200,210,220,210,,,,,,210,B
1,Ignacio Paz,M,1979-03-04,43,Argentina,Single-ply,M40-44,96.4,100,,,,,,180,190,-192.5,,190,,,,,,190,B
1,Sergio Fabian Cousau,M,1964-03-16,58,Argentina,Raw,M55-59,80.08,82.5,,,,,,,,,,,190,205,212.5,,212.5,212.5,D
1,Paolo Meneses Coveli,M,1991-03-01,31,Chile,Raw,Open,74.8,75,,,,,,,,,,,240,250,-255,,250,250,D
1,Franco Perez,M,1995-02-18,27,Argentina,Raw,Open,89.42,90,,,,,,,,,,,220,260,280,-300.5,280,280,D
